,Run Index,Slice letter,Start Position,End Position,Path,Acronym,Distance (m),Distance ICP (m),run_code,timelength,consumption_j,consumption_wh,cons_j_time,cons_wh_time,odom_distance,cons_j_dist,cons_wh_dist
0,A,a,Garage,Laverdiere,A,A,1400.0,1400.0,Aa,1515.5913937091827,2660425.9074406005,739.0071965112779,1755.3714797295113,0.48760318881375314,2316.4481504880123,1148.493613759549,0.3190260038220969
1,A,b,Laverdiere,Garage,A,A’,,,Ab,1605.0633916854858,2766651.352370149,768.5142645472636,1723.702233009547,0.4788061758359852,2379.872524740589,1162.5208172323094,0.322922449231197
2,B,a,Laverdiere,Garage,B,B’,1500.0,1500.0,Ba,1613.5626966953278,2975308.529163218,826.4745914342272,1843.9373538176278,0.5122048205048966,2403.18972519389,1238.0664322801936,0.34390734230005376
3,C,a,Garage,Gazebo,C,C,1000.0,1000.0,Ca,545.1895744800568,1002897.5453658098,278.5826514905027,1839.5391113673913,0.510983086490942,827.4708962660372,1212.003406876768,0.3366676130213244
4,C,b,Gazebo,Garage,C,C’,,,Cb,443.5446825027466,1180806.3910569495,328.00177529359706,2662.2039168503334,0.7395010880139815,870.2447450338008,1356.867016773639,0.3769075046593442
